/* XPM */
/*
  Xinvest Copyright 1996-97 Mark Buser,
  All Rights Reserved.

  Permission is hereby granted to copy
  and freely distribute copies of this
  program for non-commercial purposes
  without fee, provided that this notice
  appears in all copies.

  All redistributions must be in their
  entirety as originally distributed.
  Feel free to modify Xinvest, but
  modified versions may not be distributed
  without prior consent of the author.

  This software is provided 'as-is'
  without any express or implied warranty.
  In no event will the author be held
  liable for any damages resulting from
  the use of this software.

  $Revision: 1.3 $ $Date: 1997/08/06 23:35:50 $
*/
static char *new_xpm[] = {
"    24    24        5            1",
". c #000000 m black",
"# c #848484 m black",
"a c #c6c6c6 m white s mask",
"b c #ffff00 m white",
"c c #ffffff m white",
"aaaaaaaaaaaaaaaaaaaaaaaa",
"aaaaaaaaaaaaaaaaaaaaaaaa",
"aaaaaaaaaaaaaaaaaaaaaaaa",
"aaaaaaaaaaaaaaaaaaaaaaaa",
"aaaabaa#baa#...aaaaaaaaa",
"aaaa#ba#ca#bcc..aaaaaaaa",
"aaaaa#b#b#bccc.c.aaaaaaa",
"aaaaab#bc####c.cc.aaaaaa",
"aaaa###cbbcccc.....aaaaa",
"aaaaaac#cc#..ccccc.aaaaa",
"aaaa#aa#bccccccccc.aaaaa",
"aaaaaaa#c.......cc.aaaaa",
"aaaaaaa.cccccccccc.aaaaa",
"aaaaaaa.c.......cc.aaaaa",
"aaaaaaa.cccccccccc.aaaaa",
"aaaaaaa.c.......cc.aaaaa",
"aaaaaaa.cccccccccc.aaaaa",
"aaaaaaa.cccccccccc.aaaaa",
"aaaaaaa............aaaaa",
"aaaaaaaaaaaaaaaaaaaaaaaa",
"aaaaaaaaaaaaaaaaaaaaaaaa",
"aaaaaaaaaaaaaaaaaaaaaaaa",
"aaaaaaaaaaaaaaaaaaaaaaaa",
"aaaaaaaaaaaaaaaaaaaaaaaa"
};
