/* XPM */
static char * image_name[] = {
"32 15 2 1",
" 	c #000000000000",
".	c #FFFFFFFFFFFF",
"                                ",
"  ............................. ",
"  ............................. ",
"  ............................. ",
"  ............................. ",
"  ............................. ",
"  ............................. ",
"  ............................. ",
"  ............................. ",
"          ..................... ",
"          ..................... ",
"          ..................... ",
"          ..................... ",
"          ..................... ",
"                                "};
