/* XPM */
static char * image_name[] = {
"32 32 3 1",
" 	c #FFFFFFFFFFFF",
".	c #FBEE14514103",
"X	c #000000000000",
"                                ",
"                                ",
"          ...........           ",
"        ...............         ",
"       ....         ....        ",
"     ....             ....      ",
"    ...   X   X  XXX    ...     ",
"    ..    XX  X X   X  ....     ",
"   ..     XX  X X   X ......    ",
"  ...     X X X X   X...  ...   ",
"  ..      X X X X   ...    ..   ",
" ...      X  XX X  ...     ...  ",
" ..       X  XX X ...       ..  ",
" ..       X   X X...X       ..  ",
" ..       X   X ...X        ..  ",
" ..            ...          ..  ",
" ..           ...           ..  ",
" ..    XXXX  ...X  X   X    ..  ",
" ..    X   X...X   X   X    ..  ",
" ..    X   X.. X    X X     ..  ",
" ..    XXXX..  X     X      ..  ",
" ...   X ...   X    X X    ...  ",
"  ..   X...    X   X   X   ..   ",
"  ...  X..    XXX  X   X  ...   ",
"   ......                 ..    ",
"    ....                 ..     ",
"    ...                 ...     ",
"     ....             ....      ",
"       ....         ....        ",
"        ...............         ",
"          ...........           ",
"                                "};
