/* XPM */
static char * image_name[] = {
"30 23 4 1",
" 	c #514455555965",
".	c #BEFBBAEAC71B",
"X	c #C71BC30BBEFB",
"o	c #000004100000",
"                              ",
"..X..X..X..X......X   X  .... ",
".....XX.XX.XXXXX.X.   .oo...X ",
"..XX.X..X..X..XX...X    o.XXX ",
".X.XX.X.X.X.XX.XX.  ... o.XXX ",
".XXXXXXX.XX...X......XX oXXXX ",
"...XX.XXXX.XXXX......XX o.X.X ",
".X..XX.XXXXXXXXX.....XX oXXXX ",
".XXX.X.                oo XXX ",
".XX.... o   oooooooooooo XXXX ",
"...XX.. o  o   o ooooooo XXXX ",
"XX..... o o..    ooooooo XXXX ",
"...XX.. o.    .. ooooooo XXXX ",
".X.X... oo o ooooooooooo X.XX ",
"..XXX.. oo   ooooooooooo XXXX ",
".XX.... oo  o .. .     o XXXX ",
"...XX.. oo .           o XXXX ",
".XXX....oooooooooooooooo.XXXX ",
".X.XX....     oo       .XXXXX ",
".X........XXX.. .. .XXXXXX.XX ",
"..XX.....XXXXX. .    XXXXXXXX ",
".XXX...XXXXXX..   X  XXXXXXXX ",
"...........X...  XX .X.X....X "};
