/* XPM */
static char * image_name[] = {
"30 30 12 1",
" 	c #CB2BCB2BCB2B",
".	c #A2899E799E79",
"X	c #BEFBC30BC30B",
"o	c #082004100410",
"O	c #2CB224922492",
"+	c #FFFFB6DAB6DA",
"@	c #FFFFD34CD34C",
"#	c #DB6C96589658",
"$	c #6DB65D755D75",
"%	c #965869A669A6",
"&	c #14514D3469A6",
"*	c #61859248A699",
"                              ",
"             .XXXX            ",
"           .oooooo.           ",
"   X X X XXO+@@+@+OX   X X X  ",
"  XXXXX   o#@++++@#o    XXXX  ",
" X       .o$++++++$o.  X   X  ",
"  X X   .$$$%++++%$$$X   X  X ",
"XX X   .o$..oO@+Oo..$o. XX X  ",
"  X XX $O.&&.o+@o.&&.O$    X X",
"X X   X$. **@o++o **@.$  X XX ",
"  X    X$ @ *%+@%$   $.   X   ",
" X     $$&Oo%+++@$OO$*$    X  ",
"  XXX  $%+##@++++@##+$$   X X ",
"XX    $$+@@+++++++++@@$$   X  ",
"  X   $$O%++++++++++%O$$      ",
"     $$@@++++++++++++@@$$     ",
"     $$$$++++++++++++$$O$@    ",
"    .O@+++++++++++++++@@O*    ",
"    $$+#++++++++++++++#+$$  X ",
"  X.O@%%++++++++++++++%%@O.   ",
"   .o@@##++++++++++++++@@o.   ",
"  X.O+@%$+++++++++++##@@+O.   ",
"  XX$$$%$$$++@+@+@+$$$O$$OX   ",
"   X.$$$.OO$O$O$O$O$O.$$$X    ",
"      X  O##o$%$%o##O@        ",
" X     @ $%@o   Xo@%O@@    X  ",
"      .oOo#@o  @ o@#ooo*@  X X",
"    .o$###O#+o  o+#O+#+$o.    ",
"   .O@@@@@@@@@oO@@@@@@@+@O.   ",
"   .oooooooooooooooooooooo.   "};
