/* XPM */
static char * image_name[] = {
"32 32 4 1",
" 	c #DF7DDB6CDF7D",
".	c #F7DEF7DEF7DE",
"X	c #000004100000",
"o	c #69A66DB669A6",
"                                ",
"                                ",
"                                ",
"                                ",
"                                ",
"                                ",
"                                ",
"   ............................ ",
" . .XXXoXXXoXXXXXXXXXoXoXoXoXoXo",
"  X oo....  . . . ... ..     o X",
"o .. oX.   .    ..   oX  oXX oX ",
".oo X oX   .    XX   XoXo .  Xo ",
"  ..... X   ooXX. oXX...o  .X   ",
"       .XXoo o o.o  .      oo   ",
"       .o X      .        Xo.   ",
"       .o XX ....o o  .o.Xo.    ",
"       .ooo X....  .  o.X  .    ",
"       .o XXoX....     X        ",
"         XX  oo....   Xo        ",
"          . ..oX...  Xo.        ",
"         .. .   X...X           ",
"   .       o oX oX Xo           ",
"  .  .  oo o ..  oXo.           ",
"        ....oX oo ..            ",
"        oX  .. .                ",
"    o    ..                     ",
"                                ",
"                            .   ",
"                                ",
"                                ",
"                                ",
"                        .       "};
