#define xdtm_width 68
#define xdtm_height 68
static char xdtm_bits[] = {
   0x00, 0x00, 0x00, 0x00, 0x00, 0x00, 0x00, 0x00, 0x00, 0xaa, 0xaa, 0xaa,
   0xaa, 0xaa, 0xaa, 0xaa, 0xaa, 0x02, 0x54, 0x55, 0x55, 0x55, 0x55, 0x55,
   0x55, 0x55, 0x05, 0xaa, 0xaa, 0xaa, 0xea, 0xaf, 0xaa, 0xaa, 0xaa, 0x02,
   0x54, 0x55, 0x55, 0x35, 0x58, 0x55, 0x55, 0x55, 0x05, 0xaa, 0xfa, 0xaf,
   0x1a, 0xb0, 0xaa, 0xaa, 0xaa, 0x02, 0x54, 0x15, 0xf8, 0xff, 0x7f, 0x55,
   0x55, 0x55, 0x05, 0xaa, 0x1a, 0x28, 0x00, 0xa0, 0xaa, 0xaa, 0xaa, 0x02,
   0x54, 0x15, 0x48, 0x00, 0x60, 0x55, 0x55, 0x55, 0x05, 0xaa, 0x1a, 0x88,
   0x00, 0xa0, 0xaa, 0xaa, 0xaa, 0x02, 0x54, 0x15, 0xf8, 0x01, 0x60, 0x55,
   0x55, 0x55, 0x05, 0xaa, 0x1a, 0x00, 0x01, 0xe0, 0xff, 0xff, 0xbf, 0x02,
   0x54, 0x15, 0x00, 0x01, 0x20, 0x00, 0x00, 0x70, 0x05, 0xaa, 0x1a, 0x00,
   0x01, 0x20, 0x30, 0x00, 0xb8, 0x02, 0x54, 0x15, 0x00, 0x01, 0x20, 0x48,
   0x00, 0x6c, 0x05, 0xaa, 0x1a, 0x00, 0x01, 0x20, 0xfc, 0x01, 0xa6, 0x02,
   0x54, 0x15, 0x00, 0x01, 0x20, 0x06, 0x02, 0x63, 0x05, 0xaa, 0x1a, 0x00,
   0xff, 0x3f, 0x09, 0x84, 0xa1, 0x02, 0x54, 0x1d, 0x00, 0x01, 0x00, 0x09,
   0xc4, 0x60, 0x05, 0xaa, 0x16, 0x00, 0x01, 0xe0, 0x0f, 0x64, 0xa0, 0x02,
   0x54, 0x13, 0x00, 0x01, 0xfe, 0x07, 0x32, 0x60, 0x05, 0xaa, 0x11, 0x00,
   0x01, 0xff, 0xff, 0x19, 0xa0, 0x02, 0xd4, 0xf0, 0xff, 0x01, 0x3c, 0x00,
   0x0c, 0x60, 0x05, 0x6a, 0x00, 0x00, 0x00, 0x00, 0x00, 0x06, 0xa0, 0x02,
   0x34, 0x00, 0x00, 0x00, 0x00, 0x00, 0x03, 0x60, 0x05, 0xfa, 0xff, 0xff,
   0xff, 0xff, 0xff, 0x01, 0xa0, 0x02, 0x14, 0x00, 0x02, 0x00, 0x08, 0x00,
   0x01, 0x60, 0x05, 0x1a, 0x00, 0x02, 0x0e, 0x08, 0x00, 0x01, 0xa0, 0x02,
   0x14, 0x1e, 0x02, 0x00, 0x08, 0x0f, 0x01, 0x60, 0x05, 0x1a, 0x00, 0xfe,
   0xff, 0x0f, 0x00, 0x01, 0xa0, 0x02, 0x14, 0x00, 0x02, 0x80, 0x0d, 0x00,
   0x01, 0x60, 0x05, 0xfa, 0xff, 0x03, 0xc0, 0xfa, 0xff, 0x01, 0xb0, 0x02,
   0x14, 0x00, 0x02, 0x60, 0x0d, 0x00, 0x01, 0x58, 0x05, 0x1a, 0x00, 0x02,
   0xb0, 0x0a, 0x00, 0xc1, 0xff, 0x02, 0x14, 0x1e, 0x02, 0x58, 0x0d, 0x00,
   0x61, 0xc0, 0x05, 0x1a, 0x00, 0x02, 0xac, 0x0a, 0x00, 0xe1, 0xff, 0x02,
   0x14, 0x00, 0x02, 0x56, 0x0d, 0x00, 0x21, 0x80, 0x05, 0xfa, 0xff, 0x03,
   0xab, 0x0a, 0x0f, 0xa1, 0xaa, 0x02, 0x14, 0x00, 0x82, 0x55, 0x0d, 0x00,
   0x21, 0x95, 0x05, 0x1a, 0x00, 0xc2, 0xaa, 0x0a, 0x00, 0x31, 0x8a, 0x02,
   0x14, 0x1e, 0x62, 0x55, 0x0d, 0x00, 0x79, 0xd5, 0x05, 0x1a, 0x00, 0xb2,
   0xaa, 0x0a, 0x00, 0x6d, 0xca, 0x02, 0x14, 0x00, 0x5a, 0x55, 0x0d, 0x00,
   0xd7, 0x60, 0x05, 0xfa, 0xff, 0xaf, 0xaa, 0xfa, 0xff, 0xab, 0xbf, 0x02,
   0x54, 0x55, 0x55, 0x55, 0x55, 0x55, 0x55, 0x55, 0x05, 0xaa, 0xaa, 0xaa,
   0xaa, 0xaa, 0xaa, 0xaa, 0xaa, 0x02, 0x04, 0x00, 0x10, 0x00, 0x00, 0x00,
   0x00, 0x00, 0x04, 0xf2, 0x00, 0x24, 0x00, 0x00, 0x00, 0x00, 0x00, 0x02,
   0xe4, 0x01, 0x16, 0x00, 0x00, 0x00, 0x00, 0x00, 0x04, 0xc2, 0x03, 0xa6,
   0xe3, 0xf3, 0xa2, 0xcf, 0x79, 0x02, 0x84, 0x07, 0x93, 0x24, 0x08, 0x12,
   0x22, 0x8a, 0x04, 0x82, 0x87, 0xa1, 0xe8, 0x70, 0x0e, 0x22, 0x7a, 0x02,
   0x04, 0xcf, 0x90, 0x24, 0x80, 0x12, 0x22, 0x0a, 0x04, 0x02, 0xce, 0xa0,
   0xe3, 0x7b, 0x22, 0xc2, 0x09, 0x02, 0x04, 0x66, 0x10, 0x00, 0x00, 0x00,
   0x00, 0x00, 0x04, 0x02, 0x73, 0xa0, 0x88, 0x88, 0x08, 0xef, 0x7b, 0x02,
   0x84, 0xf1, 0x90, 0x4d, 0x99, 0x94, 0x20, 0x88, 0x04, 0x82, 0xf1, 0xa0,
   0x2a, 0xaa, 0xa2, 0xec, 0x78, 0x02, 0xc4, 0xe0, 0x91, 0xe8, 0xcb, 0xbe,
   0x28, 0x48, 0x04, 0x62, 0xc0, 0xa3, 0x28, 0x8a, 0x22, 0xef, 0x8b, 0x02,
   0x34, 0x80, 0x17, 0x00, 0x00, 0x00, 0x00, 0x00, 0x04, 0x32, 0x80, 0x27,
   0x00, 0x00, 0x00, 0x00, 0x00, 0x02, 0x04, 0x00, 0x10, 0x00, 0x00, 0x00,
   0x00, 0x00, 0x04, 0xaa, 0xaa, 0xaa, 0xaa, 0xaa, 0xaa, 0xaa, 0xaa, 0x02,
   0x54, 0x55, 0x55, 0x55, 0x55, 0x55, 0x55, 0x55, 0x05, 0xaa, 0xaa, 0xaa,
   0xaa, 0xaa, 0xaa, 0xaa, 0xaa, 0x02, 0x54, 0x55, 0x55, 0x55, 0x55, 0x55,
   0x55, 0x55, 0x05, 0x00, 0x00, 0x00, 0x00, 0x00, 0x00, 0x00, 0x00, 0x00};
